\headcommand {\beamer@sectionpages {1}{0}}
\headcommand {\beamer@subsectionpages {1}{0}}
\headcommand {\sectionentry {1}{Probabilités}{1}{Probabilités}{0}}
\headcommand {\slideentry {1}{0}{1}{1/1}{}{0}}
\headcommand {\beamer@framepages {1}{1}}
\headcommand {\slideentry {1}{0}{2}{2/2}{}{0}}
\headcommand {\beamer@framepages {2}{2}}
\headcommand {\beamer@partpages {1}{2}}
\headcommand {\beamer@subsectionpages {1}{2}}
\headcommand {\beamer@sectionpages {1}{2}}
\headcommand {\beamer@documentpages {2}}
\headcommand {\gdef \inserttotalframenumber {2}}
